{
    "name": "flutter_docker",
    "context": "..",
    "dockerFile": "../Dockerfile",
    "remoteUser": "developer",
    // Only available in linux environment
    //"mounts": ["source=/dev/bus/usb,target=/dev/bus/usb,type=bind"],
    "settings": {
      "terminal.integrated.shell.linux": null
    },
    "runArgs": ["--privileged"],
    "extensions": ["dart-code.flutter"],
    "workspaceMount": "source=${localWorkspaceFolder}/workspace,target=/home/developer/workspace,type=bind,consistency=delegated",
    "workspaceFolder": "/home/developer/workspace"
  }